…
In the code chunk below, use group_by(), summarise(), and arrange() to display the ten most popular names. Compute popularity as the total number of children of a single gender given a name. In other words, the total number of boys named “Kelly” should be computed separately from the total number of girls named “Kelly”.

```{r}
babynames %>%
   group_by(name, sex) %>%
   summarize(total = sum(n)) %>%
   arrange(desc(total))
```

#### The history of the most popular names by total children

Let’s examine how the popularity of popular names has changed over time. To help us, I’ve made top_10, which is a version of babynames that is trimmed down to just the ten most popular names from above.

```
## # A tibble: 1,380 x 5
##     year sex   name        n    prop
##    <dbl> <chr> <chr>   <int>   <dbl>
##  1  1880 F     Mary     7065 0.0724 
##  2  1880 M     John     9655 0.0815 
##  3  1880 M     William  9532 0.0805 
##  4  1880 M     James    5927 0.0501 
##  5  1880 M     Charles  5348 0.0452 
##  6  1880 M     Joseph   2632 0.0222 
##  7  1880 M     Robert   2415 0.0204 
##  8  1880 M     David     869 0.00734
##  9  1880 M     Richard   728 0.00615
## 10  1880 M     Michael   354 0.00299
## # … with 1,370 more rows
```
…
